{
  "version": "1.0",
  "defaultProvider": "cdnjs",
  "libraries": [
    {
      "library": "bootstrap@5.1.3",
      "destination": "wwwroot/lib/bootstrap/"
    },
    {
      "library": "angular-material@1.2.4",
      "destination": "ClientApp/angular-material/"
    }
  ]
}